{
    "success": true,
    "JsonName":"LayerBaseJson",
		"data": [
			{
				"layerName": "WMS NO1",
				"layerType": "WMS",
				"url": "http://10.4.165.192:8090/geoserver/cite/wms",
				"layers": "cite:guojia1",
				"service": "WMS",
				"format": "image/png",
				"transparent": "true",
				"style": "",
				"tileMatrixSetID": "",
                "credit": "",
                "maximumLevel": ""
            },{
				"layerName": "ImageBaseMap",
				"layerType": "SingleTileImageryProvider",
				"url": "",
				"layers": "",
				"service": "",
				"format": "",
				"transparent": "true",
				"style": "",
				"tileMatrixSetID": "",
                "credit": "",
                "maximumLevel": ""
            },{
				"layerName": "Bing Maps Road",
				"layerType": "createWorldImagery",
				"url": "",
				"layers": "",
				"service": "",
				"format": "",
				"transparent": "true",
				"style": "Cesium.IonWorldImageryStyle.ROAD",
				"tileMatrixSetID": "",
                "credit": "",
                "maximumLevel": ""
            },
            {
				"layerName": "ArcGIS World Street Maps",
				"layerType": "ArcGisMapServerImageryProvider",
				"url": "https://services.arcgisonline.com/ArcGIS/rest/services/World_Street_Map/MapServer",
				"layers": "",
				"service": "",
				"format": "",
				"transparent": "",
				"style": "",
				"tileMatrixSetID": "",
                "credit": "",
                "maximumLevel": ""
            },{
				"layerName": "OpenStreetMaps",
				"layerType": "createOpenStreetMapImageryProvider",
				"url": "",
				"layers": "",
				"service": "",
				"format": "",
				"transparent": "",
				"style": "",
				"tileMatrixSetID": "",
                "credit": "",
                "maximumLevel": ""
            },{
				"layerName": "Stamen Maps",
				"layerType": "createOpenStreetMapImageryProvider",
                "url": "https://stamen-tiles.a.ssl.fastly.net/watercolor/",
                "fileExtension":"jpg",
				"layers": "",
				"service": "",
				"format": "",
				"transparent": "",
				"style": "",
				"tileMatrixSetID": "",
                "credit": "Map tiles by Stamen Design, under CC BY 3.0. Data by OpenStreetMap, under CC BY SA.",
                "maximumLevel": ""
            },{
				"layerName": "USGS Shaded Relief (via WMTS)",
				"layerType": "WMTS",
                "url": "http://basemap.nationalmap.gov/arcgis/rest/services/USGSShadedReliefOnly/MapServer/WMTS",
                "fileExtension":"",
				"layers": "USGSShadedReliefOnly",
				"service": "",
				"format": "image/jpeg",
				"transparent": "",
				"style": "default",
				"tileMatrixSetID": "default028mm",
                "credit": "U. S. Geological Survey",
                "maximumLevel": 19
            }	 
		]
}